849250 889162 445
706772 555269 509
883648 627825 525
14432 134804 354
655325 142436 509
594721 243835 470
496800 814506 509
183944 950397 525
712774 201478 509
128675 453750 449
84958 419818 449
415549 792749 509
258042 837982 525
450269 45799 449
275865 508851 449
532749 826422 509
401302 714802 509
719346 43817 509
462218 91501 449
833852 227153 509
587238 322426 470
55595 623616 470
699424 466617 509
906931 567231 525
237455 832702 509
720848 45432 509
469846 109580 449
529933 986687 525
919358 42745 525
596928 637168 509
718568 525377 509
380788 771445 509
321392 365363 441
581747 59621 470
989837 27246 525
81932 732623 509
96129 272171 443
123338 975203 525
839402 476547 525
148899 116938 375
112550 571081 470
409231 313072 441
91112 688206 509
2265 853939 525
312757 420658 449
928381 84765 525
705642 846326 525
724090 650321 504
276673 306781 389
155188 99575 375
593961 223955 470
528007 940554 525
903136 493623 525
734491 694325 504
327631 952148 525
152126 486332 449
274790 684872 509
300927 92989 443
249012 828728 509
770460 386960 509
618964 227448 470
686824 872819 525
407141 605582 470
609075 495063 470
609550 698814 509
828513 953343 525
720014 362615 509
130700 497628 449
973635 234035 525
262478 840318 525
49683 732945 509
151998 447849 449
858469 999252 507
902755 640503 525
471857 860124 525
838254 727818 525
696249 85822 509
667361 191174 509
973064 542188 525
983299 328646 525
278195 86092 443
998711 972735 440
378300 854153 525
589999 810548 509
75441 923872 525
14167 913501 525
353761 28972 443
879982 917456 476
377990 67342 443
879337 713408 525
191554 958736 525
266623 722184 509
474058 294269 449
177164 656548 509
383949 624031 470
615643 368128 470
77745 824612 509
411680 506926 444
541780 875570 525
378296 352829 423
311590 581865 470
218174 354277 443
569534 818492 509
692432 10878 509
868136 46124 525
64821 546727 470
695838 779303 504
849100 896510 445
672460 468800 509
668357 814023 504
743969 475714 509
398767 869711 525
630962 421551 509
917804 718241 525
991781 401058 525
280579 892335 525
34369 317620 443
121237 715718 509
478931 876477 525
373892 463287 449
440105 524086 470
570090 43786 470
846458 328623 525
843441 740089 525
518764 677788 509
887155 942379 507
77930 550740 470
235035 734844 509
293375 814933 509
242398 65442 443
696533 173782 509
53148 851791 525
28238 622814 470
717839 285205 509
434885 939514 525
919894 3223 525
783918 629085 504
382341 240025 441
140151 857036 525
772192 216779 509
831591 363243 509
965604 619685 525
941663 824332 525
873507 606241 525
659642 52463 509
173523 241975 443
753801 977239 525
373591 394955 436
833378 596140 509
257391 796753 509
167654 325792 443
776083 586827 509
270911 932544 525
168061 818583 509
155983 533444 470
896116 370959 525
164692 487554 449
178790 825859 509
716667 726922 411
323042 660039 509
373822 424089 449
714190 590360 509
170291 366444 443
52201 171072 383
605540 307544 470
108801 218384 386
618346 253962 470
465221 432688 444
802632 582698 509
550902 980806 525
399498 559185 470
172053 914144 525
893921 181888 525
806791 438535 509
203409 110052 383
883262 899510 445
941516 594960 525
114158 864163 525
75003 185629 383
207561 227989 386
866578 670064 525
948644 813716 525
139343 881807 525
59492 630739 509
614408 930368 525
206065 475861 449
135066 715270 509
426744 747405 509
234465 203178 443
642745 698795 442
745180 363345 509
356524 24653 443
48822 219894 386
21157 325171 443
173046 225722 386
844153 153579 525
956877 843791 507
498819 73647 449
119063 996838 525
415527 672712 509
616443 892315 525
