365835 365847 180
481887 481888 170
984659 984673 184
909337 909340 171
225460 225475 169
295188 295202 265
326311 326329 185
967167 967183 290
998572 998578 246
603270 603272 235
177774 177779 241
678704 678720 155
395659 395661 175
576417 576426 103
411097 411102 206
712162 712162 124
910564 910566 202
779702 779719 256
58348 58354 167
639766 639775 279
272895 272911 208
337233 337240 110
9013 9023 154
310544 310561 203
316577 316588 353
583219 583220 129
918313 918318 202
353655 353656 198
219404 219423 156
20004 20012 181
16258 16271 160
374099 374110 211
901879 901884 114
248617 248625 164
749858 749862 168
768860 768873 181
198941 198945 236
747003 747006 119
951468 951486 246
972452 972466 246
20270 20281 88
479730 479747 214
43001 43004 195
234217 234234 231
193260 193266 210
179662 179663 210
420442 420443 219
517774 517788 271
859545 859555 251
886186 886198 233
372342 372351 167
152368 152372 39
888156 888156 189
698310 698325 199
776749 776757 256
347846 347859 229
270469 270476 208
256281 256289 182
416406 416411 162
996600 996607 215
821081 821100 194
122070 122072 119
426812 426825 175
15545 15560 147
535104 535116 147
772936 772941 101
559246 559246 147
540631 540640 209
103095 103098 142
929095 929108 202
162261 162278 184
565432 565434 134
920032 920036 202
730273 730286 212
64546 64555 193
668074 668083 261
337614 337626 154
742291 742308 212
408627 408638 206
102903 102912 235
453958 453963 170
418123 418141 281
39008 39017 275
700653 700668 261
275036 275047 177
583781 583797 434
482333 482338 227
153582 153590 171
818098 818106 145
526907 526920 333
989644 989654 140
951727 951737 171
346686 346702 154
402709 402720 206
441910 441926 188
336051 336065 136
345268 345280 198
63961 63971 162
776583 776594 269
62343 62350 105
119287 119293 212
602214 602225 266
875389 875405 264
756835 756854 256
308164 308178 190
873315 873323 220
604074 604080 266
263528 263528 120
330740 330747 260
345174 345193 273
540366 540383 227
160940 160945 153
95846 95865 222
979453 979463 184
545659 545674 209
649565 649577 217
148442 148452 295
762357 762367 225
843002 843011 207
947047 947065 383
637368 637371 85
612309 612320 204
807438 807446 238
965889 965893 122
678803 678810 230
475118 475124 245
980261 980272 215
707130 707137 137
881099 881117 171
562472 562489 253
238129 238130 76
877498 877514 202
720144 720161 230
644624 644626 142
160677 160682 96
948388 948392 184
693140 693148 168
286567 286581 221
159520 159534 122
680018 680034 230
403865 403880 206
502319 502336 258
866309 866311 158
485556 485567 214
760297 760302 225
430291 430292 100
376771 376772 180
689664 689675 155
5172 5177 148
70135 70154 219
293124 293136 203
835529 835529 88
94186 94193 178
884758 884761 96
935112 935116 202
477276 477290 276
410152 410164 237
290083 290083 128
433092 433095 219
204291 204306 161
504463 504478 245
522497 522514 196
450184 450190 157
676738 676740 230
341443 341457 190
36090 36094 156
388448 388457 193
241041 241051 213
746328 746330 163
607192 607210 204
616522 616527 310
57105 57112 92
377835 377848 193
192148 192167 254
154030 154037 78
22660 22673 207
851801 851804 220
674144 674155 367
158504 158523 153
27995 28012 184
921753 921766 202
861135 861144 176
256610 256627 164
240115 240122 169
396129 396140 175
545977 545983 178
633867 633886 173
188230 188235 285
451774 451792 157
855124 855129 220
13833 13845 227
528932 528946 196
781947 781958 269
39496 39496 138
220469 220472 187
611785 611787 111
507714 507719 227
367451 367458 136
59945 59945 203
138836 138852 145
531987 532004 240
598060 598064 266
420432 420434 219
769493 769499 132
999440 999452 215
905623 905630 233
40558 40560 89
605032 605050 235
658141 658147 142
31953 31962 99
198816 198816 130
723923 723932 243
290861 290863 102
821377 821390 269
486122 486123 139
712721 712731 243
255721 255726 195
677071 677078 186
181613 181632 179
600679 600689 235
214965 214972 187
263607 263618 270
39762 39780 275
675620 675639 230
521301 521302 165
7990 8009 190
552502 552512 147
668197 668213 261
468613 468625 276
504136 504144 227
851412 851431 220
69500 69519 175
561078 561083 160
919802 919805 158
245214 245224 213
89627 89637 196
205607 205613 218
200872 200881 143
150675 150686 140
390153 390171 299
888022 888022 119
833561 833576 225
447496 447501 188
870582 870595 189
796561 796568 145
573419 573421 129
62611 62630 162
464086 464102 232
332637 332645 154
693125 693141 186
170194 170206 184
505808 505813 108
594632 594643 266
137620 137627 207
105729 105745 173
115379 115391 168
665094 665110 142
20826 20837 256
990827 990842 290
201633 201648 192
631979 631986 217
28488 28506 166
191142 191153 254
945133 945134 109
310038 310048 172
450627 450638 188
573253 573272 191
10869 10881 180
429768 429773 144
30602 30617 179
784787 784799 137
313894 313895 110
216300 216315 205
476086 476092 100
665693 665699 230
943269 943279 171
531325 531327 196
414421 414427 312
447438 447449 113
63765 63771 180
218700 218704 156
257261 257279 195
40925 40934 182
520569 520573 196
841463 841471 282
914672 914672 145
159500 159501 78
940625 940638 277
814279 814283 114
844911 844917 194
300573 300587 234
590463 590473 235
127677 127682 225
611107 611110 85
382109 382128 224
809522 809537 207
691039 691042 199
483743 483750 214
993594 993609 246
219092 219101 187
436920 436938 263
848347 848358 282
68919 68932 175
145173 145177 176
47022 47036 159
711286 711289 168
449763 449769 139
159242 159244 171
335390 335400 154
800885 800904 282
739799 739799 142
995331 995338 153
624995 625011 173
34463 34470 174
684640 684643 230
902728 902740 233
254123 254136 151
246294 246305 213
151083 151088 233
569119 569131 178
500131 500139 214
692058 692062 199
69363 69369 175
613023 613033 204
227960 227979 187
781386 781389 163
909857 909867 202
53474 53493 322
32241 32246 192
490976 490984 139
50955 50958 203
926038 926048 171
993072 993086 122
650793 650806 248
135980 135983 114
237821 237836 151
434520 434537 188
422663 422663 82
476216 476217 121
980004 980022 184
576696 576705 98
240395 240413 213
184633 184647 254
55898 55916 167
876779 876797 189
978822 978829 215
567762 567780 191
667269 667270 261
720231 720250 212
121346 121359 181
306997 306998 128
206762 206777 236
826878 826878 176
454391 454397 170
720761 720769 243
281438 281445 159
422058 422074 144
903471 903476 158
609359 609377 248
552795 552799 165
843351 843368 207
635347 635350 155
912737 912744 233
730619 730624 150
190221 190237 161
915021 915033 233
277645 277649 164
298876 298884 159
862987 863004 220
792439 792446 194
351986 352002 273
692960 692978 305
864438 864448 251
979487 979499 202
768695 768713 194
965140 965140 70
147089 147090 158
524320 524328 103
85500 85502 183
308953 308958 234
308051 308059 190
368981 368986 180
203403 203410 205
119646 119664 243
344295 344297 198
182261 182278 272
499987 500004 258
650535 650550 336
465987 466004 170
822489 822491 207
321302 321313 216
849162 849164 132
678567 678581 230
509338 509340 227
746167 746183 181
55027 55030 185
625168 625183 186
322488 322488 97
750971 750971 181
975058 975063 184
779021 779029 194
221573 221587 125
422077 422088 206
38767 38775 156
382489 382498 255
238466 238473 169
365281 365297 211
860333 860342 220
53605 53605 123
674535 674538 230
104101 104110 160
828088 828104 176
87308 87323 196
709626 709627 199
260517 260527 226
814316 814317 101
199311 199318 192
593803 593812 297
56679 56697 154
800092 800111 207
595551 595561 266
886128 886138 282
511636 511653 227
533852 533862 240
316930 316939 172
879073 879083 220
360336 360350 198
700112 700125 243
634548 634550 129
412985 413002 175
66785 66796 144
128569 128579 132
649405 649418 217
181092 181092 73
694064 694078 168
998709 998725 184
374392 374400 224
302919 302923 203
157366 157382 171
849863 849869 189
207414 207415 135
745096 745109 212
399437 399437 118
500470 500478 139
342314 342326 198
505298 505301 196
150131 150141 233
451431 451447 263
413191 413193 175
804453 804467 238
577845 577852 191
60244 60245 136
270138 270144 177
254804 254820 257
360761 360775 211
179325 179336 179
559046 559063 209
957125 957135 246
894196 894215 233
394998 395015 268
482471 482471 121
937458 937461 158
553659 553662 178
622645 622661 173
732670 732671 181
757736 757744 318
983712 983729 184
987325 987339 153
78314 78329 214
835453 835464 220
805340 805356 269
992854 992866 171
264963 264974 164
179812 179819 241
11860 11872 144
679479 679494 261
268115 268124 133
814016 814023 114
172048 172059 197
353148 353154 167
387932 387936 131
66807 66810 237
148350 148359 158
501308 501320 183
53149 53165 185
446544 446549 188
545917 545925 209
36255 36259 125
849028 849031 251
81230 81243 214
224615 224618 200
258121 258121 102
990513 990532 228
517586 517601 152
562278 562290 253
522645 522646 152
741863 741865 168
561929 561935 178
7275 7287 177
935351 935362 233
90830 90844 165
667537 667545 142
983408 983425 282
545258 545272 165
106329 106333 111
345049 345057 154
935967 935981 202
39006 39023 275
407774 407775 175
390871 390873 206
730643 730650 212
901789 901804 277
633973 633991 248
124169 124180 150
546020 546036 209
583238 583240 191
261760 261765 164
828819 828828 282
158355 158364 246
293370 293371 97
216843 216846 231
767455 767459 225
827637 827652 207
696279 696284 181
167706 167721 153
16168 16179 147
78349 78360 201
602111 602114 142
442907 442912 219
148715 148734 295
194676 194682 192
112456 112466 186
91182 91189 178
484299 484301 170
118039 118045 168
645565 645577 279
162051 162060 184
869523 869541 326
50224 50236 110
18136 18152 186
930500 930518 171
228289 228290 112
658474 658479 124
935417 935425 233
246668 246677 151
574674 574681 328
509694 509705 258
56846 56863 291
573447 573463 129
224932 224947 223
333266 333284 260
167375 167391 184
712367 712382 186
883556 883566 171
154104 154110 171
856717 856719 127
221965 221983 218
488559 488570 214
428223 428238 219
362789 362795 180
118599 118600 168
221968 221980 218
635125 635135 248
338760 338777 154
39203 39214 138
423037 423042 157
261613 261614 71
100679 100695 266
772700 772716 194
779787 779797 181
57621 57639 273
89843 89853 178
279341 279345 146
716988 716993 199
790951 790954 176
362367 362372 211
986986 986991 184
166003 166019 352
510552 510552 59
685019 685025 199
954729 954741 215
460919 460922 170
622439 622449 279
565320 565333 315
675526 675535 230
531227 531236 258
834858 834858 189
68249 68254 206
323316 323328 216
579612 579613 98
368040 368042 92
990467 990472 184
491922 491929 139
240513 240514 213
791376 791389 163
968328 968334 277
173531 173544 197
352808 352824 198
226610 226616 112
125273 125279 137
847534 847538 176
919367 919385 308
808393 808407 238
116253 116272 168
157799 157817 246
110580 110597 155
345054 345063 154
676916 676923 155
743665 743676 181
878106 878108 96
910229 910230 233
488258 488271 245
921561 921579 202
140103 140118 251
580647 580658 191
862702 862714 181
807706 807721 207
436956 436958 250
715673 715688 212
234506 234506 169
433603 433615 343
