419963 812483 509
447031 635875 509
337286 264527 407
116989 765096 509
957673 321531 525
621077 663636 509
76579 275737 443
219741 692683 509
113094 599601 470
711177 876717 525
770901 799648 468
670085 636605 442
252314 708056 509
799915 423973 509
406185 436060 449
166519 176446 347
205385 286634 443
427047 235936 449
349809 261108 441
205097 371893 443
480808 136074 449
916672 343276 525
107653 85110 354
430644 538071 470
448445 852270 525
4209 303105 443
236723 311672 407
729830 803163 468
60225 641572 509
663452 705566 504
339029 631774 509
893222 944311 507
486854 59607 449
272258 881578 525
370307 574309 470
164296 465308 449
702147 100278 509
191997 66956 383
418474 886333 525
64365 125184 354
929329 796382 525
371166 262041 441
92544 608556 470
124631 585797 470
289527 788262 509
587956 812904 509
586771 342263 470
42718 331645 443
34710 252006 443
145992 202427 383
769771 85997 509
479432 318226 449
122419 227381 386
186163 563758 470
365532 337237 441
232045 37083 443
2566 373699 443
737324 267822 509
411414 958031 525
234426 365669 441
40796 622716 470
845229 536118 525
46127 382655 443
118625 93124 354
458033 796326 509
105036 808271 509
263673 500909 449
951440 647090 525
575181 753603 509
732122 998733 525
936659 920555 476
972616 833895 525
16738 429228 449
544235 133794 470
82162 811430 509
402587 779673 509
831717 15175 509
236991 638922 509
204689 748130 509
366936 77891 443
57095 643944 509
583994 738388 509
853442 554429 525
720038 768302 468
540192 389203 470
805934 94793 509
950619 764121 525
823184 580591 509
695527 564632 509
491271 400309 449
925408 234798 525
756720 82548 509
489947 390733 449
969717 685047 525
26304 804498 509
296077 313040 384
457066 798919 509
757965 224818 509
440086 603974 470
48830 111937 354
358578 66914 443
831808 785147 468
100904 591980 470
965846 448864 525
696671 384027 509
322408 645730 509
324773 923351 525
841965 939186 476
474682 439613 444
263135 466312 449
204189 623973 470
97090 543466 470
189409 74564 383
523880 425718 470
877089 555443 525
311054 516685 470
306082 86145 443
661176 942667 525
269471 257448 407
634317 703862 442
248419 25217 443
325630 212034 443
928998 60153 525
963600 235722 525
764926 230944 509
473526 600249 470
4948 693004 509
569140 200071 470
71435 216835 386
702347 540782 509
941853 347547 525
938577 11884 525
361177 798608 509
510581 717581 509
103450 688430 509
700981 218376 509
399072 745539 509
131116 940288 525
950622 743884 525
416266 579602 470
548362 63113 470
221260 739264 509
811664 574274 509
170773 360138 443
605667 311211 470
20318 979994 525
599980 3314 470
981601 930984 507
913779 740450 525
754043 399064 509
188991 891123 525
355707 588651 470
552180 576429 421
593252 215805 470
797055 70651 509
870586 682762 525
844691 952051 507
323938 589479 470
300789 196232 443
198548 639295 509
715042 206789 509
298019 728600 509
28701 809526 509
741018 777265 468
178854 728254 509
927404 104783 525
638837 911361 525
783503 380021 509
283458 298671 389
806328 190197 509
213244 522120 470
293970 581630 470
905015 273734 525
79912 779001 509
898406 704214 525
96910 713092 509
262279 890513 525
689372 750374 504
48562 906684 525
820596 697120 504
473415 330115 449
576833 860989 525
593671 804632 509
362169 737775 509
629090 510166 509
108901 759447 509
800866 884275 525
478696 427418 444
958984 299856 525
382728 370657 423
174038 823789 509
304582 83367 443
521388 152953 470
993389 612869 525
176080 817206 509
593887 578327 434
286165 567803 470
131678 930296 525
750115 291384 509
937323 518747 525
479510 293495 449
938395 580263 525
823717 260619 509
660908 281067 509
579251 629840 509
580305 258851 470
241029 653969 509
19807 525922 470
859003 456040 525
471594 61781 449
930251 662218 525
88574 721676 509
693710 166742 509
519812 872052 525
81784 22330 351
126886 216312 383
825821 89220 509
507217 593787 470
138021 78882 354
293104 632509 509
970554 239336 525
676334 548024 509
725227 127897 509
942996 423201 525
367845 574114 470
757791 168186 509
938372 752145 525
129079 416040 449
423611 165213 449
285690 632933 509
123085 520591 470
751940 440439 509
52742 282760 443
253014 472797 449
665340 263486 509
488726 894314 525
943964 18069 525
6729 676316 509
974620 637646 525
424882 561579 470
516345 503069 470
866983 601687 525
633868 924246 525
775218 819957 468
282717 606497 470
260886 701263 509
226848 954742 525
235263 370843 441
452546 95324 449
668580 854638 525
