838112 226330 525
399994 400345 374
548819 594888 434
688769 878334 525
153265 723149 509
366313 418713 449
728880 429066 509
214430 731297 509
646982 720611 504
879998 520624 525
125471 180586 383
998414 972367 440
173061 62573 383
525538 994451 525
485821 753653 509
604875 674462 509
710805 751340 424
962912 934585 507
408208 515903 470
659826 57207 509
693755 593566 509
638030 618995 509
275008 38869 443
147773 7450 375
740748 735444 424
936458 220513 525
301061 836700 509
722472 161613 509
182787 202755 360
933085 617612 525
387112 79179 443
177506 530146 470
592853 642149 509
41449 567936 470
955781 762905 525
69060 731910 509
111970 85097 354
236800 315221 407
313544 763787 509
21275 570063 470
325846 377332 441
907642 36508 525
12534 280267 443
980007 295878 525
134222 554713 470
187186 618245 470
40649 276716 443
609524 331940 470
907323 127836 525
243915 590215 470
625331 17839 470
972965 434315 525
167135 310735 443
908669 425138 525
366367 418661 449
816344 268767 509
523484 722057 509
67549 879113 525
53206 126704 354
651573 17134 509
44001 381791 443
507339 771224 509
417459 720347 509
342390 369906 441
947126 657195 525
605886 264333 470
75766 991481 525
734566 478396 509
677826 917355 525
637657 641427 416
462300 805193 509
262452 211109 443
957793 16284 525
922364 785550 525
151439 68149 375
220838 705431 509
521841 731219 509
700369 399942 509
130604 867687 525
716737 957907 525
975682 901462 507
18358 58048 340
446260 848648 525
100918 26447 351
680122 780099 504
587150 561821 434
801529 190737 509
302782 714881 509
340223 541866 470
202360 732017 509
184030 76661 383
65014 539688 470
914902 363663 525
744111 838843 525
372617 923566 525
161651 895026 525
579820 461100 470
6835 434515 449
201479 775991 509
913426 504960 525
765123 496809 509
941172 704011 525
546967 662056 509
92071 730389 509
687908 415206 509
44893 655978 509
106779 529019 470
633921 607321 509
913477 881531 476
64498 53638 335
755324 803990 468
235123 760659 509
546810 753 470
840277 53947 525
264798 219800 443
490558 502220 426
738097 999318 525
513156 264361 470
843208 365836 525
812501 234295 509
842402 630616 525
888515 839580 445
330653 501875 449
993291 197161 525
88829 864853 525
233349 294493 407
393567 569078 470
668559 257826 509
25798 184261 383
179109 648600 509
12690 313489 443
145656 181690 383
421397 530376 470
175992 343526 443
784879 272142 509
999589 393053 525
814202 678045 504
557829 145331 470
216221 617067 470
149594 126316 375
451312 851894 525
170091 533506 470
376591 671795 509
428202 86671 449
704407 384660 509
941860 503422 525
646359 29553 509
965080 351991 525
773568 79970 509
820998 690873 504
779143 89022 509
249338 4223 443
368438 383380 423
179363 312358 443
198369 391813 443
443294 192830 449
335862 51542 443
739678 764571 424
67933 868367 525
336024 823575 509
349731 714186 509
222966 211885 386
193315 905651 525
504400 945087 525
721895 500698 509
602784 361389 470
801548 470562 509
60497 228842 386
306957 720090 509
503700 391845 449
146492 769473 509
438277 910292 525
385854 789205 509
283414 511081 449
48117 383329 443
927645 210213 525
229565 820423 509
5790 83638 351
604719 417374 470
981207 731206 525
203127 449402 449
61154 972138 525
762907 203794 509
362822 920115 525
337351 376772 441
314796 248259 407
847750 256173 525
446910 184083 449
509050 927946 525
573366 751500 509
266084 729183 509
150785 343629 443
219069 491451 449
959031 157338 525
968699 648519 525
921282 754071 525
709787 184705 509
647097 94448 509
452452 961253 525
774966 701404 504
914224 986586 507
994710 872049 507
958994 286922 525
263261 160891 443
356607 91477 443
410712 247877 449
436 498110 449
784003 754114 468
796114 514097 509
899743 882571 445
609623 385808 470
134550 931249 525
197375 230268 386
63644 230849 443
528737 609379 452
325248 267020 407
331453 651807 509
624568 529991 452
422059 852763 525
780871 671591 504
704953 261820 509
726216 538801 509
164689 464598 449
470941 657755 509
209791 276388 443
163604 226075 386
329414 3137 443
941290 100407 525
903237 914415 476
55660 130584 354
979416 248963 525
408894 893897 525
729180 378743 509
892019 150856 525
253851 207117 443
101773 475213 449
396284 69212 443
613929 839577 525
334435 220517 443
82975 531072 470
966141 580538 525
516993 333890 470
181007 485543 449
739119 106515 509
336331 309279 384
774581 251463 509
734396 801990 468
28237 335408 443
420107 324627 449
743099 535916 509
359846 241855 441
163334 918448 525
