71253 503951 449
854076 694362 525
413423 861698 525
779589 521232 509
928289 159611 525
779805 358084 509
872100 583712 525
760322 372791 509
303715 687530 509
177821 111701 383
996524 59884 525
606443 582804 434
448630 335964 449
323428 409454 441
770735 370257 509
802114 263174 509
457069 101971 449
304306 230931 407
82451 950430 525
532520 471291 470
807219 127532 509
972605 610474 525
942791 745300 525
680425 231687 509
830564 696264 504
144595 511160 449
797095 283746 509
936232 795937 525
37505 299963 443
182487 536507 470
62325 349617 443
301609 750817 509
153961 850083 525
356561 461975 449
754382 652552 504
199705 588831 470
606592 126571 470
98152 849001 525
840153 1258 525
190962 779933 509
618538 556798 447
141666 411640 449
919363 662039 525
629421 584218 509
685487 88973 509
541202 18225 470
649590 267179 509
354426 848351 525
853415 104105 525
273904 950850 525
357487 987908 525
404580 312130 441
484695 655440 509
732045 750316 424
103489 89042 341
246092 635858 509
697481 587161 509
158629 948966 525
177428 125693 383
84970 920308 525
758335 153959 509
443725 590583 470
697262 723018 504
731488 815956 468
710093 746929 424
871866 527253 525
464379 564631 470
271524 904144 525
785470 562637 509
983039 369883 525
437681 153656 449
749140 147953 509
992477 925317 507
509666 768490 509
144069 882695 525
334668 250316 407
222249 825591 509
604195 113292 470
869446 480782 525
67966 292377 443
667965 485981 509
257235 61671 443
237813 684837 509
498279 307057 449
322705 388206 441
346602 981436 525
496732 138072 449
549454 972500 525
490394 654886 509
103530 901947 525
603898 400203 470
894625 276059 525
727562 481586 509
410857 287375 449
236035 688522 509
232848 601039 470
901380 163042 525
588118 350718 470
111917 439093 449
551210 595419 434
338169 383983 441
731199 241525 509
774840 485175 509
901638 46491 525
99851 198129 383
949466 380449 525
653913 731420 504
303956 510284 449
365427 557055 470
417439 140587 449
616913 407785 470
238073 66582 443
458543 788277 509
65395 281279 443
61541 270288 443
422590 681922 509
667840 104647 509
599809 103944 470
955956 609889 525
484284 739850 509
710733 547757 509
889715 911154 476
257981 259325 301
163456 539065 470
861981 947906 507
936968 737384 525
889482 465929 525
687530 74650 509
612912 647914 509
630894 254826 509
609959 382200 470
715079 624946 509
920201 917728 432
677888 127257 509
889026 407143 525
880059 221929 525
494003 223410 449
512279 258731 470
811110 142601 509
44195 945643 525
464812 290492 449
225777 189689 386
706909 956303 525
606572 291218 470
558827 580987 421
858808 243400 525
803508 577672 509
551656 363258 470
812390 253441 509
165802 879245 525
601282 801066 509
958302 866421 507
153399 963124 525
197589 26517 383
89085 105676 341
721677 669773 504
954865 719076 525
611071 479019 470
361163 280658 441
519160 224711 470
158276 101133 383
341673 10711 443
946269 897474 507
334381 772076 509
106900 556856 470
868345 723746 525
826856 576016 509
430204 316483 449
212789 648405 509
685858 91503 509
266102 912274 525
777700 966008 525
80504 421023 449
310302 836733 509
311565 817903 509
955350 892259 507
413110 941697 525
614085 342304 470
554055 877450 525
334734 357758 441
873605 518271 525
280621 554663 470
81927 800612 509
38807 374194 443
877713 718346 525
776195 733185 468
437715 556775 470
107514 753766 509
972242 972981 321
958782 195956 525
296098 958942 525
279360 943235 525
995933 585880 525
875018 646734 525
191431 646422 509
759614 304817 509
866582 925219 476
647417 866936 525
612929 53078 470
914093 360428 525
532565 276436 470
553923 364065 470
509321 588474 470
2710 985652 525
711241 230251 509
938340 749553 525
537106 27374 470
491092 335196 449
518448 306101 470
109231 357580 443
103973 179791 383
598306 406506 470
586732 789018 509
170120 389040 443
790918 112886 509
175928 422660 449
999221 388633 525
822585 920172 525
62036 882133 525
914844 862345 476
651781 870993 525
154934 170834 383
126109 630867 509
891415 277501 525
504158 863262 525
