220113 827683
204486 611113
960939 81742
720318 329942
172532 695411
448761 482314
969380 618509
317563 936462
412549 408497
186275 87825
969012 325270
87178 410179
826654 587225
699015 119062
193973 469070
759898 596890
358111 774154
208548 439337
430836 698716
688855 373176
526444 691844
409728 906187
468995 903289
823259 598979
866003 912584
177159 980023
255124 905481
814438 484985
106949 944441
58682 556743
324972 535973
1700 623452
533246 165650
338587 114978
405177 767258
941111 211072
976824 98977
889076 804480
488293 555626
95475 540501
403991 729419
730255 563907
343103 307964
732273 31089
794209 77198
400878 631916
778909 822687
37100 805111
547146 602377
684782 526491
307994 363736
796393 594765
813564 649332
615040 677559
934331 917659
373697 79436
274638 983940
421224 942864
396031 55968
428510 735330
851887 299419
238231 199402
103259 913544
204194 281137
344852 453944
363785 96001
911271 548249
169214 581252
673294 700788
726863 372312
428630 969085
631447 490309
618470 965477
928850 823744
629799 184014
58020 990892
997105 312933
701056 509132
411632 876326
716454 912240
59732 839451
928717 610354
772207 196954
322583 84816
850019 378699
91946 167122
772502 510927
873266 717438
986515 675563
912822 537309
197569 125922
780750 602777
981409 733867
672957 341064
401701 553629
373238 31326
431335 742401
293588 843274
739313 280377
149221 638986
45985 999567
178174 802351
686133 923488
288560 510218
870989 115916
723621 366795
926549 7659
871307 333320
242505 452281
364083 218374
540237 397527
716869 161179
782772 56073
438560 885278
124787 187621
302449 39327
867887 490722
454438 138973
34713 924825
968357 335257
565092 256571
979335 123247
654726 613708
880249 645400
915962 271824
378749 733439
546637 894824
796955 659690
319539 257997
345403 396576
679797 425078
541519 495912
234930 970666
866623 936064
988759 347633
270935 879007
785209 322939
238215 457869
387894 542267
101991 412145
854412 791515
139803 772673
305439 833627
38062 175709
645349 236156
460826 36542
697243 488047
901773 763137
512821 476485
999435 388877
3971 605860
24772 240725
540107 201837
150351 953216
760682 707726
841267 33751
183227 997009
814326 171077
372562 570189
289371 713898
769703 971881
688507 836527
365029 996143
632573 779592
898192 428079
916584 922490
78501 966039
694277 626533
210196 747813
635604 544032
435271 774610
808195 425047
857796 889719
164749 812560
712078 363955
149415 994578
243570 854885
566740 880974
217250 937014
661165 877970
787650 627878
385606 446383
378226 250837
579418 793844
845267 856070
607741 131435
702290 217141
138409 389426
327323 289772
54479 533428
307949 283063
600362 773993
824475 674516
116736 332408
157524 602749
125653 161149
187419 651836
792172 835704
202656 808673
679840 431871
578242 813872
968364 32746
239322 487777
660608 280488
811481 502636
506896 385457
602317 211690
575898 961259
714578 23524
342832 476967
51338 397250
82532 171105
615355 214573
860075 458737
189040 774676
