49623 85482 351
576169 687142 509
708010 710545 380
601108 942548 525
963183 20605 525
513874 325396 470
880926 965008 507
347124 798850 509
243130 123520 443
58914 512449 470
470125 777915 509
314799 246521 407
402797 358654 436
473400 552110 470
39670 924333 525
386405 457530 449
222598 373513 443
751011 891822 525
109504 931663 525
552923 949012 525
971219 238756 525
739297 259682 509
774219 232099 509
82554 597110 470
689718 455348 509
840793 122933 525
643469 65118 509
650580 679615 442
40869 458316 449
85084 134966 354
325285 843183 525
578316 884307 525
953943 20802 525
485626 352525 449
903974 920164 476
376763 540000 470
183408 926132 525
868423 170105 525
267775 289892 407
988887 45357 525
875556 401439 525
607654 153758 470
793002 799765 468
577301 628278 509
289024 389198 441
681975 601241 509
241170 471885 449
255400 82424 443
214557 656992 509
127272 303481 443
176137 199297 365
902108 234 525
830773 313884 509
525648 830433 509
60915 617304 470
533454 675351 509
953649 519643 525
30644 97329 351
51616 738706 509
52720 468213 449
817386 833561 450
745409 658712 504
514687 327452 470
295819 475308 449
150082 165698 383
482783 890837 525
220920 605832 470
958755 608429 525
296266 222184 443
168524 285075 443
519669 883369 525
241933 267350 407
401937 150656 443
508009 189718 449
114953 723486 509
679645 205909 509
982719 888402 507
931812 833306 525
220745 82965 386
452140 663891 509
551965 35602 470
389626 670514 509
412677 554057 470
858512 597974 525
545097 320653 470
92953 581519 470
115671 160482 383
723619 999117 525
591888 276493 470
234245 46441 443
496005 136567 449
302053 970330 525
836111 507031 509
473249 269727 449
788716 953173 525
838759 693663 525
420815 43454 449
429940 214866 449
139923 232974 443
687466 961193 525
37509 408199 443
490836 712278 509
671744 979645 525
673545 209060 509
625307 923701 525
859184 415941 525
529788 786566 509
553956 291932 470
449480 191840 449
273749 935150 525
197847 642738 509
430484 563271 470
51619 624204 470
981643 522376 525
513671 926027 525
460518 989271 525
222047 112896 386
745469 797911 468
992984 653191 525
349598 408703 436
364162 676548 509
860929 555678 525
181437 694643 509
569413 47453 470
787831 82746 509
684865 350181 509
177851 949052 525
64109 791579 509
427542 29301 449
368526 878912 525
660734 638106 429
988243 522163 525
704231 630751 442
758200 59470 509
508414 666434 509
383970 727574 509
539556 865333 525
393268 307208 441
370605 706108 509
838397 851123 419
254775 462703 449
598269 13512 470
734961 344956 509
34154 708521 509
264577 912102 525
233174 559114 470
568660 787219 509
695342 783820 504
555593 987494 525
386949 539664 470
813933 593481 509
944972 158506 525
477135 537451 470
678819 917100 525
716523 18853 509
50063 317951 443
32114 824898 509
506274 688395 509
490876 902014 525
759704 954219 525
515902 674451 509
252390 10594 443
309656 147753 443
796815 828039 450
109099 949309 525
78825 223023 386
358130 266038 441
798654 553535 509
226773 373318 443
305003 350251 441
328182 564373 470
734282 514001 509
46257 895473 525
738232 306524 509
616289 403709 470
400927 41516 443
380232 127630 443
802469 816546 406
614501 382770 470
769498 189178 509
598215 783912 509
734696 908966 525
923084 19655 525
315502 225859 443
937738 938668 445
198556 288963 443
454523 410787 418
252926 31745 443
921360 858482 476
222916 12425 386
274180 726988 509
808026 341297 509
887387 441788 525
373039 271060 441
178375 671369 509
598749 530665 452
689729 665834 398
977764 258945 525
943124 147264 525
147992 499690 449
858081 615213 525
89296 149410 375
575278 411800 470
