79 492
988 558
129 637
121 170
430 586
633 785
486 896
979 704
291 905
911 634
830 754
463 374
612 777
820 30
332 350
934 824
328 823
803 293
115 365
788 713
500 406
124 682
415 634
983 189
761 236
276 80
350 580
388 702
914 56
530 729
341 409
743 404
456 501
303 17
780 773
907 110
891 113
450 539
556 418
474 370
371 553
789 804
923 380
723 16
557 143
760 298
941 528
234 854
243 704
955 888
881 243
950 722
613 157
69 718
762 494
260 179
20 386
99 892
391 280
509 477
1000 595
926 309
887 815
784 966
745 595
133 300
421 109
479 99
646 156
704 602
820 570
989 689
514 284
112 674
613 765
222 801
916 813
915 813
714 784
277 375
663 70
802 197
211 737
854 420
526 135
206 329
886 296
864 482
753 736
721 760
312 964
812 647
413 128
732 264
2 47
818 606
342 61
633 50
403 309
353 380
519 52
919 415
228 566
706 737
956 181
52 665
90 862
442 461
74 430
557 179
674 495
365 95
338 721
973 136
256 174
282 762
419 804
302 964
617 899
599 180
481 574
438 286
702 843
787 770
651 330
561 413
612 29
716 899
924 150
173 776
955 133
880 87
217 428
236 11
772 711
268 56
815 173
655 544
322 966
959 146
635 644
768 527
429 36
600 181
957 106
627 102
714 105
311 51
405 174
442 718
781 244
547 502
991 809
66 788
313 287
345 157
196 518
618 472
73 316
184 911
782 628
636 570
245 981
6 653
790 669
428 582
898 66
210 101
152 535
89 631
579 949
890 387
703 799
192 745
945 233
314 973
365 297
157 347
904 579
148 930
470 909
221 186
991 890
332 896
468 499
741 497
570 977
683 384
938 227
353 986
701 218
168 923
998 113
479 984
474 977
469 546
961 314
213 543
707 743
250 80
454 16
963 522
208 283
387 256
279 422
189 93
774 154
122 354
520 835
555 303
18 415
477 364
320 631
506 370
878 996
558 251
586 61
689 695
181 151
606 886
352 396
777 231
516 440
113 750
817 43
478 359
684 391
781 176
851 826
729 987
823 694
560 40
828 312
718 102
200 98
871 689
658 239
431 634
941 993
2 413
379 579
953 602
842 426
785 640
229 633
443 1000
464 576
150 288
551 716
614 804
