302634 669475
267480 632849
988828 771253
302679 790177
116206 994228
742289 676436
300482 568695
602562 584767
399528 872033
33841 872977
897249 398960
834855 651425
158832 875361
71506 683323
604401 547901
431943 648552
239756 632952
897709 483694
404983 396975
656044 107882
569137 999337
238934 277503
513376 790206
194951 600460
883660 172154
376486 956851
44625 47092
213838 111568
164463 532073
906666 608387
332773 647166
311426 671443
243206 255467
540370 755063
404725 43806
494285 751197
899043 433794
705227 117082
329518 929707
970228 924287
487937 235498
866757 944650
530051 432104
552864 628266
970360 338815
862922 245734
327781 56782
461211 263026
90568 758173
87020 1522
363047 313951
395497 124104
69347 459540
242583 141890
609529 158771
822745 493617
261711 231919
961136 141854
75966 367845
822188 917722
131382 770352
150661 633766
27693 428184
47286 542076
528345 151914
140941 693144
493490 228005
504530 119065
537787 322406
23462 534280
992545 520070
152057 464998
864136 329048
30262 354716
786017 552222
42384 228098
243265 970004
438918 296404
766806 191391
651648 449595
913507 714708
30290 920511
793542 417564
392243 135679
744197 171589
556487 344365
454566 338975
412961 244292
366345 869559
67946 424374
550484 879192
476850 351526
558637 717132
297793 944904
691010 483589
777535 548677
774254 243974
913943 138383
419524 7177
283220 797282
186444 869535
777926 567589
102159 71781
760850 826308
24126 263534
220329 506775
594505 869463
326497 82192
519376 304308
869154 39161
667920 328109
607898 654804
231814 771764
379628 640250
258644 530394
401892 937782
562994 450032
359611 961079
74156 208686
51595 71502
216818 280257
964481 358730
896070 659614
550769 120622
703906 412656
780026 454407
246788 177428
791624 142567
144824 411679
583500 851635
182245 562731
554448 415088
161561 75273
904262 775593
213058 166550
119754 840320
926675 158559
747309 550529
781882 430913
876009 635020
381073 78543
227008 777203
287797 598777
636100 669129
23746 686225
846835 648052
17429 641435
404366 545059
805232 855755
664320 606359
611356 575577
254542 711221
750408 686587
966100 890323
888759 991688
432258 187299
788033 681162
363204 584014
946029 80536
699180 545526
27519 854457
942972 919737
824084 571989
276220 50107
947696 642148
518382 634076
967007 868339
770202 846981
516588 552935
78791 106079
47055 702198
990662 816971
536570 212121
156176 306492
46232 106356
777134 46600
460061 449189
557184 5574
58229 510126
805216 102626
60674 979939
274261 639677
495330 467060
756662 735750
142434 872047
661136 260063
551614 338014
269802 25533
107375 394969
195497 465930
34748 864286
899586 337033
867675 254419
203448 351641
869074 417860
689798 520117
212494 787745
387881 859990
874730 341770
563037 894922
541845 11887
839383 16665
779542 320150
232679 571937
607872 988641
953652 767623
848904 595468
757307 423680
40788 176791
243429 434279
287500 946703
934041 746233
634932 211630
136988 266527
364718 279841
537296 960408
294079 550029
78257 39423
985526 121128
479582 217265
424540 178377
578965 245856
722057 510108
128605 381978
821715 862912
475975 85313
785486 741327
694519 122889
878849 474405
122941 503433
405686 440124
63097 196390
959498 736773
503670 188850
832121 719090
149991 117270
173434 799104
795784 804205
207770 714544
911361 188961
540310 100150
896749 666888
239963 618388
671628 836160
308647 87872
85644 278177
877899 383960
935972 732457
497913 724304
549355 897276
