711840 619113 509
525877 276125 470
569643 159670 470
36288 90495 351
231582 807084 509
601339 518203 452
235448 914360 525
986610 194880 525
787244 913451 525
623799 650168 509
488223 126431 449
57796 650632 509
451565 555673 470
103170 332209 443
653221 684648 442
5240 70677 340
420949 924195 525
931081 966494 507
117496 221580 386
362913 107065 443
271307 309895 389
990563 869987 507
760618 968123 525
374993 768419 509
954144 936094 507
548232 820194 509
660355 76936 509
722381 64379 509
836374 237573 509
379059 698872 509
539854 191425 470
700267 181128 509
571330 501903 470
538314 33896 470
157342 285429 443
927539 5273 525
62993 570002 470
430531 106493 449
68834 326496 443
820847 559973 509
440719 684274 509
509485 588423 470
871495 681477 525
107862 416932 449
386235 899795 525
756731 409271 509
3491 952550 525
756351 414701 509
70601 405961 443
602730 423055 470
538269 523185 408
647288 192734 509
677070 587863 509
456179 375297 449
340837 263218 407
607124 591266 403
272813 552501 470
429543 561935 470
616484 77600 470
893114 153298 525
451553 528433 470
159838 138916 383
552548 170526 470
808701 763125 468
819569 960160 525
42737 450606 449
531937 249362 470
915741 713371 525
515447 117466 470
25485 115464 354
175244 64433 383
19698 411496 449
996646 380052 525
108704 989138 525
103354 3409 351
101391 523958 470
866060 932616 476
164656 24727 383
619918 767979 509
300125 266590 407
549009 931326 525
735931 163513 509
739113 595089 509
486383 997254 525
167430 920607 525
713526 359757 509
553818 809158 509
359122 613677 470
96713 743104 509
368464 362756 361
732770 343966 509
34143 518781 470
81175 564417 470
461843 740337 509
723178 612274 509
308780 427814 449
687509 718577 504
986884 899675 507
905635 228642 525
144529 143277 326
254819 196232 443
776576 849965 525
918763 678680 525
742185 819675 468
685680 633245 442
508888 379810 449
112088 825176 509
93875 776320 509
822929 80505 509
123685 372235 443
661893 808612 504
322230 843198 525
772730 894621 525
92975 603882 470
443119 694545 509
451399 550537 470
994805 789024 525
901159 156442 525
394952 678804 509
305394 767976 509
788733 750760 468
196347 984208 525
267580 910831 525
52609 989441 525
854159 241848 525
684935 861 509
265764 919595 525
161349 490090 449
586951 735868 509
792192 145015 509
442814 750548 509
979523 804606 525
443832 676643 509
889887 506408 525
189928 995845 525
465266 900330 525
637408 908220 525
46283 830846 509
704652 126490 509
856046 140924 525
881835 269909 525
495510 559550 470
921369 181857 525
432235 241427 449
561325 994384 525
707933 919897 525
740296 852929 525
602518 958201 525
587666 235793 470
74664 23395 340
553965 308786 470
842764 778987 525
420430 113596 449
274580 170879 443
994562 299867 525
709174 189983 509
472692 812286 509
69840 17211 340
976937 64339 525
47072 969027 525
370049 205695 443
864662 791470 525
764999 418676 509
793479 596638 509
639720 808728 504
530636 661515 509
523754 874684 525
967286 141446 525
17786 132418 354
877341 573096 525
217664 190910 386
992739 559085 525
463207 827605 509
243145 759946 509
48373 709766 509
888851 742202 525
664272 601733 509
416453 9705 449
987436 886702 507
321279 274953 389
216240 513089 470
278406 566691 470
560636 321296 470
979137 229467 525
323029 645809 509
614891 607387 403
965325 56014 525
388176 117388 443
615858 744483 509
206243 719327 509
462134 835294 509
701900 360619 509
249017 394273 441
432426 122947 449
600045 406952 470
260598 271631 407
531614 650721 509
442755 49826 449
518560 657643 509
972493 696284 525
255369 142338 443
938096 661598 525
785589 219270 509
426465 660931 509
581497 573123 390
138334 239191 443
407013 549860 470
352060 701656 509
584348 301464 470
956597 126826 525
249317 409669 441
626412 341133 509
644178 58014 509
633657 713356 504
383323 478968 449
854713 469070 525
370223 440192 449
202451 293581 443
131650 561349 470
553816 554756 421
85487 541627 470
205366 337488 443
901117 733915 525
206163 338566 443
307461 162992 443
791782 780412 406
895502 786559 525
71101 32619 340
198916 587134 470
562857 95109 470
168404 463061 449
284158 689673 509
379781 257316 441
459312 459874 307
431716 710586 509
665180 665315 442
548222 421308 470
342537 822824 509
216496 125233 386
49230 249176 443
946934 489693 525
151001 891136 525
95391 505258 449
330791 93258 443
498766 570778 470
192870 466065 449
235315 473586 449
794205 461014 509
190658 117752 383
641222 478526 509
448134 871125 525
503972 17412 449
3179 765211 509
571602 858277 525
463159 924158 525
99824 521909 470
148075 603160 470
756530 95233 509
722741 954225 525
128600 861991 525
659442 711786 504
544911 890609 525
834454 763176 468
220938 702796 509
815666 985188 525
595524 93101 470
368327 930495 525
304310 183847 443
795257 114208 509
321205 794026 509
616751 759458 509
372089 960702 525
299847 795887 509
