711840 619113
525877 276125
569643 159670
36288 90495
231582 807084
601339 518203
235448 914360
986610 194880
787244 913451
623799 650168
488223 126431
57796 650632
451565 555673
103170 332209
653221 684648
5240 70677
420949 924195
931081 966494
117496 221580
362913 107065
271307 309895
990563 869987
760618 968123
374993 768419
954144 936094
548232 820194
660355 76936
722381 64379
836374 237573
379059 698872
539854 191425
700267 181128
571330 501903
538314 33896
157342 285429
927539 5273
62993 570002
430531 106493
68834 326496
820847 559973
440719 684274
509485 588423
871495 681477
107862 416932
386235 899795
756731 409271
3491 952550
756351 414701
70601 405961
602730 423055
538269 523185
647288 192734
677070 587863
456179 375297
340837 263218
607124 591266
272813 552501
429543 561935
616484 77600
893114 153298
451553 528433
159838 138916
552548 170526
808701 763125
819569 960160
42737 450606
531937 249362
915741 713371
515447 117466
25485 115464
175244 64433
19698 411496
996646 380052
108704 989138
103354 3409
101391 523958
866060 932616
164656 24727
619918 767979
300125 266590
549009 931326
735931 163513
739113 595089
486383 997254
167430 920607
713526 359757
553818 809158
359122 613677
96713 743104
368464 362756
732770 343966
34143 518781
81175 564417
461843 740337
723178 612274
308780 427814
687509 718577
986884 899675
905635 228642
144529 143277
254819 196232
776576 849965
918763 678680
742185 819675
685680 633245
508888 379810
112088 825176
93875 776320
822929 80505
123685 372235
661893 808612
322230 843198
772730 894621
92975 603882
443119 694545
451399 550537
994805 789024
901159 156442
394952 678804
305394 767976
788733 750760
196347 984208
267580 910831
52609 989441
854159 241848
684935 861
265764 919595
161349 490090
586951 735868
792192 145015
442814 750548
979523 804606
443832 676643
889887 506408
189928 995845
465266 900330
637408 908220
46283 830846
704652 126490
856046 140924
881835 269909
495510 559550
921369 181857
432235 241427
561325 994384
707933 919897
740296 852929
602518 958201
587666 235793
74664 23395
553965 308786
842764 778987
420430 113596
274580 170879
994562 299867
709174 189983
472692 812286
69840 17211
976937 64339
47072 969027
370049 205695
864662 791470
764999 418676
793479 596638
639720 808728
530636 661515
523754 874684
967286 141446
17786 132418
877341 573096
217664 190910
992739 559085
463207 827605
243145 759946
48373 709766
888851 742202
664272 601733
416453 9705
987436 886702
321279 274953
216240 513089
278406 566691
560636 321296
979137 229467
323029 645809
614891 607387
965325 56014
388176 117388
615858 744483
206243 719327
462134 835294
701900 360619
249017 394273
432426 122947
600045 406952
260598 271631
531614 650721
442755 49826
518560 657643
972493 696284
255369 142338
938096 661598
785589 219270
426465 660931
581497 573123
138334 239191
407013 549860
352060 701656
584348 301464
956597 126826
249317 409669
626412 341133
644178 58014
633657 713356
383323 478968
854713 469070
370223 440192
202451 293581
131650 561349
553816 554756
85487 541627
205366 337488
901117 733915
206163 338566
307461 162992
791782 780412
895502 786559
71101 32619
198916 587134
562857 95109
168404 463061
284158 689673
379781 257316
459312 459874
431716 710586
665180 665315
548222 421308
342537 822824
216496 125233
49230 249176
946934 489693
151001 891136
95391 505258
330791 93258
498766 570778
192870 466065
235315 473586
794205 461014
190658 117752
641222 478526
448134 871125
503972 17412
3179 765211
571602 858277
463159 924158
99824 521909
148075 603160
756530 95233
722741 954225
128600 861991
659442 711786
544911 890609
834454 763176
220938 702796
815666 985188
595524 93101
368327 930495
304310 183847
795257 114208
321205 794026
616751 759458
372089 960702
299847 795887
