525410 280110
605996 583527
537960 754355
378453 855826
759880 935485
677676 169429
569780 836693
178507 312060
949251 633128
841368 713935
709511 354525
578349 988624
573342 251040
130684 354722
647714 775747
502259 201361
458371 332376
54892 116783
224166 394046
91566 633828
566484 147168
773714 649450
680182 151408
775761 609128
236930 408847
85953 541711
675069 637499
77193 428099
50919 641766
3200 508437
12069 307289
317848 213746
692922 587144
87916 728962
481090 690875
900618 490609
540124 964163
758390 768349
440674 489688
686693 794929
348858 840353
674176 875326
454614 990261
934263 19835
280329 188591
595719 851662
321417 597246
134341 986886
973929 515165
225396 941933
86008 854356
218219 572992
454814 95893
20154 866617
589819 89458
940516 691602
523265 202546
174688 38835
522337 568730
373739 508007
207109 467842
467268 652278
918721 336655
319821 175439
597158 861038
490064 614108
691872 645056
90250 46944
94036 210341
705515 172424
537845 896611
686082 229062
174851 718966
128673 801060
295933 343923
239706 969334
944440 383929
348926 544694
233359 11379
49383 189786
636744 886962
697603 893012
671970 248201
543860 161716
86036 808654
97220 802078
189819 125459
337481 197317
303912 619048
561588 773303
887756 224233
848802 141264
106432 45649
78894 323249
185246 273016
525829 99456
425040 819422
340188 435796
395577 666944
377586 3486
465882 956759
536802 577246
107380 824586
685472 271970
277449 155685
769535 495126
742323 719530
844301 397791
62898 467380
684985 814375
205518 995511
383741 580371
576640 47125
689317 808357
567331 112641
201801 639108
52223 718656
448114 937554
278439 1038
983189 539738
296454 298089
207642 156511
941291 436814
514898 677121
895972 239163
50288 820194
45554 479950
900141 176697
932249 464791
467941 981943
484383 412101
981739 267236
823462 761236
938532 912511
143614 136527
503903 159187
974561 338697
70767 144833
428679 939023
688694 994201
664031 682951
980792 508965
4535 888809
933456 669195
417186 959757
762578 889579
838585 779870
109120 450525
255908 282701
987007 693895
907194 288998
130995 594689
785148 655662
644519 58365
295262 683200
665539 76376
150210 196356
567087 560391
741652 14110
90583 894487
543065 585721
731714 908397
756248 400450
452517 22063
392522 441903
18868 947147
228203 500625
462407 422015
368582 241393
220629 143288
2433 455472
126091 462791
772625 394893
744322 655493
529582 191834
941574 792797
84395 553426
649836 990623
183201 289464
794971 335638
436913 702674
687476 33204
706453 966884
380014 684609
88363 116239
430648 668450
80640 267939
557622 29266
975665 516533
482673 904114
564768 204537
759295 352547
121003 301735
72836 440539
903482 329065
785345 933265
97719 83114
64702 244818
117509 414484
673695 289722
176174 729508
708132 855211
274534 729491
672548 163260
922834 28624
803524 391216
230616 376620
475396 366249
61810 268730
892902 83580
964745 651675
34531 484696
219674 844061
246667 994460
459102 658135
6745 305321
193190 543528
395331 430771
496012 554614
89341 812576
487283 169108
340724 437675
554182 80255
274737 576651
586414 666830
115412 749086
